<?xml version="1.0" encoding="UTF-8" standalone="no"?>
<!DOCTYPE svg PUBLIC "-//W3C//DTD SVG 20010904//EN"
"http://www.w3.org/TR/2001/REC-SVG-20010904/DTD/svg10.dtd">
<!-- Created with Inkscape (http://www.inkscape.org/) -->
<svg
   id="svg604"
   sodipodi:version="0.32"
   width="24.000000pt"
   height="24.000000pt"
   sodipodi:docbase="/home/zeus/.icons/gartoon/scalable/stock"
   sodipodi:docname="gtk-missing-image.svg"
   inkscape:version="0.40"
   xmlns="http://www.w3.org/2000/svg"
   xmlns:inkscape="http://www.inkscape.org/namespaces/inkscape"
   xmlns:sodipodi="http://sodipodi.sourceforge.net/DTD/sodipodi-0.dtd"
   xmlns:xlink="http://www.w3.org/1999/xlink"
   xmlns:rdf="http://www.w3.org/1999/02/22-rdf-syntax-ns#"
   xmlns:cc="http://web.resource.org/cc/"
   xmlns:dc="http://purl.org/dc/elements/1.1/">
  <metadata
     id="metadata22">
    <rdf:RDF
       id="RDF23">
      <cc:Work
         rdf:about=""
         id="Work24">
        <dc:format
           id="format25">image/svg+xml</dc:format>
        <dc:type
           id="type27"
           rdf:resource="http://purl.org/dc/dcmitype/StillImage" />
      </cc:Work>
    </rdf:RDF>
  </metadata>
  <defs
     id="defs606">
    <linearGradient
       id="linearGradient612">
      <stop
         style="stop-color:#7fa8e3;stop-opacity:0.741176;"
         offset="0.000000"
         id="stop613" />
      <stop
         style="stop-color:#ffffff;stop-opacity:0;"
         offset="1.000000"
         id="stop614" />
    </linearGradient>
    <linearGradient
       xlink:href="#linearGradient612"
       id="linearGradient615"
       x1="50.6438866"
       y1="5.36792946"
       x2="35.7520943"
       y2="68.0443573"
       gradientUnits="userSpaceOnUse"
       spreadMethod="pad"
       gradientTransform="matrix(0.476517,0.000000,0.000000,0.476517,0.594694,0.686095)" />
    <linearGradient
       xlink:href="#linearGradient612"
       id="linearGradient571" />
  </defs>
  <sodipodi:namedview
     id="base"
     inkscape:zoom="4.2916667"
     inkscape:cx="31.805825"
     inkscape:cy="6.1747573"
     inkscape:window-width="1014"
     inkscape:window-height="696"
     inkscape:window-x="0"
     inkscape:window-y="25"
     inkscape:current-layer="svg604" />
  <path
     style="fill:#000000;fill-opacity:0.30147097;fill-rule:evenodd;stroke:none;stroke-width:1.0000000pt;stroke-linecap:butt;stroke-linejoin:miter;stroke-opacity:1.0000000"
     d="M 3.6075867,25.921239 C 2.7540864,25.533271 1.5902437,24.291839 2.2109671,22.584838 C 2.5213095,20.722706 8.1078194,4.2735394 9.3492874,3.4976396 C 10.125152,2.7993332 11.250254,2.5277595 12.840854,2.9545097 C 14.159887,3.2648731 26.031186,6.3685074 26.729485,6.9892061 C 27.427819,7.6099401 27.970953,8.1142734 27.427819,9.4721067 C 27.039887,10.170406 22.423218,25.843638 22.345653,26.852339 C 22.035286,27.938606 21.143021,29.257639 19.668786,29.180039 C 18.194587,29.102438 4.6938535,26.154005 3.6075867,25.921239 z "
     id="path794"
     sodipodi:nodetypes="ccccccccc" />
  <path
     style="fill:#3d4e67;fill-opacity:1.0000000;fill-rule:evenodd;stroke:none;stroke-width:1.0000000pt;stroke-linecap:butt;stroke-linejoin:miter;stroke-opacity:1.0000000"
     d="M 2.7077440,24.481488 C 1.8542437,24.093521 0.69040102,22.852088 1.3111244,21.145088 C 1.6214667,19.282956 7.2079768,2.8337892 8.4494447,2.0578894 C 9.2253092,1.3595831 10.350412,1.0880094 11.941012,1.5147595 C 13.260044,1.8251230 25.131343,4.9287573 25.829643,5.5494563 C 26.527977,6.1701898 27.071110,6.6745231 26.527977,8.0323564 C 26.140045,8.7306558 21.523376,24.403888 21.445810,25.412590 C 21.135444,26.498856 20.243178,27.817889 18.768944,27.740289 C 17.294744,27.662688 3.7940108,24.714255 2.7077440,24.481488 z "
     id="path609"
     sodipodi:nodetypes="ccccccccc" />
  <path
     style="fill:#ffffff;fill-opacity:1.0000000;fill-rule:evenodd;stroke:none;stroke-width:1.0000000pt;stroke-linecap:butt;stroke-linejoin:miter;stroke-opacity:1.0000000"
     d="M 4.4923452,23.162455 C 3.6000797,22.929689 2.3197765,22.696887 2.7853445,21.300289 C 3.6388448,17.886323 7.9839118,4.7735563 9.8460431,3.1441562 C 10.272811,2.7561887 11.708210,2.6010228 14.423877,3.4545231 C 17.527511,4.3855888 23.812310,6.4805217 24.433044,6.7908890 C 25.053742,7.1012557 25.286544,7.1012557 24.820976,8.4978894 C 24.122677,9.8945230 21.019078,21.843422 20.243143,23.860754 C 19.700044,25.296188 19.583644,25.955688 18.652543,25.955688"
     id="path608"
     sodipodi:nodetypes="cccccccs" />
  <path
     style="fill:url(#linearGradient615);fill-opacity:1.0000000;fill-rule:evenodd;stroke:none;stroke-width:1.0000000pt;stroke-linecap:butt;stroke-linejoin:miter;stroke-opacity:1.0000000"
     d="M 9.1996812,5.1268610 C 9.1996812,5.1268610 10.131506,3.2631962 12.461068,3.8222911 C 14.790631,4.3814010 23.922516,6.8041461 23.829333,7.5496059 C 23.736150,8.2950658 22.058866,12.674643 21.965683,13.047373 C 21.872500,13.420103 13.299711,13.233738 10.038324,15.190571 C 6.7769365,17.147403 4.3541914,18.824688 4.3541914,18.824688 C 4.3541914,18.824688 7.7087615,8.3882481 9.1996812,5.1268610 z "
     id="path636" />
  <path
     style="fill:#a4cff8;fill-opacity:1.0000000;fill-rule:evenodd;stroke:none;stroke-width:1.0000000pt;stroke-linecap:butt;stroke-linejoin:miter;stroke-opacity:1.0000000"
     d="M 9.6514271,5.7593061 C 9.6514271,5.7593061 10.221856,4.1666728 12.551418,4.7257826 C 14.880981,5.2848896 23.651466,6.9848455 23.558287,7.7303054 C 23.465104,8.4757652 22.058866,12.674643 21.965683,13.047373 C 21.872500,13.420103 19.533799,13.956530 13.652284,12.705970 C 10.300549,12.855823 7.2001848,12.093685 7.2001848,12.093685 C 7.2001848,12.093685 8.1605069,9.0206934 9.6514271,5.7593061 z "
     id="path570"
     sodipodi:nodetypes="ccccccc" />
  <path
     style="fill:#188103;fill-opacity:0.98430002;fill-rule:evenodd;stroke:none;stroke-width:1.0000000pt;stroke-linecap:butt;stroke-linejoin:miter;stroke-opacity:1.0000000"
     d="M 4.7987765,17.497565 L 3.8049361,20.976005 C 3.7052843,21.324785 4.2064619,21.684276 4.5616101,21.758086 L 17.684804,24.485498 C 18.067057,24.564943 18.677959,24.523102 18.808520,24.155161 L 20.112936,20.479084 L 4.7987765,17.497565 z "
     id="path575"
     sodipodi:nodetypes="csssscc" />
  <path
     style="fill:#9c3031;fill-opacity:1.0000000;fill-rule:evenodd;stroke:none;stroke-width:1.0000000pt;stroke-linecap:butt;stroke-linejoin:miter;stroke-opacity:1.0000000"
     d="M 9.9034963,19.846639 C 9.9034963,19.846639 12.523615,20.433908 12.568791,20.433908 C 12.613966,20.433908 13.878853,16.774772 13.878853,16.774772 L 18.893225,14.561222 L 17.763862,14.335347 L 13.924026,15.826106 L 15.188916,13.973953 C 15.491197,13.531329 16.060300,13.135805 16.002054,12.844591 C 15.954892,12.608769 16.296358,11.464478 16.002054,11.850749 L 13.110884,15.645409 L 12.930188,13.115636 L 11.755652,12.257321 L 12.252570,15.103316 L 12.433267,16.503727 L 9.9034963,19.846639 z "
     id="path576"
     sodipodi:nodetypes="ccccccssscccccc" />
  <path
     style="fill:#9ccf00;fill-opacity:1.0000000;fill-rule:evenodd;stroke:none;stroke-width:1.0000000pt;stroke-linecap:butt;stroke-linejoin:miter;stroke-opacity:1.0000000"
     d="M 15.324437,7.7850433 C 14.389959,8.2869721 13.265309,8.4301587 12.117046,7.9657432 C 11.557488,7.7614448 11.588413,9.2317703 10.716635,9.2306300 C 9.7901882,9.2293515 8.8019813,10.066731 9.3162271,11.670052 C 9.4707048,12.198064 10.400424,11.921309 10.806986,13.115636 C 11.145644,14.072856 12.182173,13.634685 13.336757,14.832267 C 13.988795,15.483074 15.132563,14.177628 16.227927,14.832267 C 17.616446,15.604841 20.402600,15.569208 20.971253,14.290174 C 21.344020,13.406554 20.308693,12.212146 21.603692,11.670052 C 21.603692,11.670052 21.079396,9.3698077 21.061602,9.4113270 C 20.474332,10.676214 18.170431,8.4174886 18.170431,8.4174886 C 16.724848,9.4263845 16.284428,7.2242423 15.324437,7.7850433 z "
     id="path574"
     sodipodi:nodetypes="csssssssssss" />
  <path
     style="fill:#058c00;fill-opacity:1.0000000;fill-rule:evenodd;stroke:none;stroke-width:1.0000000pt;stroke-linecap:butt;stroke-linejoin:miter;stroke-opacity:1.0000000"
     d="M 18.297688,14.980097 C 19.419209,15.037750 20.149844,14.483176 20.149844,14.483176 C 20.478172,14.482200 20.263074,13.034783 20.691938,12.450323 C 21.171420,11.784576 20.884974,11.076651 21.008162,10.552991 C 21.045083,10.406942 20.333259,10.489851 20.240193,11.230609 C 20.128050,12.221112 20.289752,13.296786 19.829394,13.924548 C 19.461553,14.426146 18.124626,14.330396 17.755595,14.618700 C 17.642763,14.706850 18.085944,14.971533 18.297688,14.980097 z "
     id="path577"
     sodipodi:nodetypes="csssssss" />
  <path
     style="fill:#058c00;fill-opacity:1.0000000;fill-rule:evenodd;stroke:none;stroke-width:1.0000000pt;stroke-linecap:butt;stroke-linejoin:miter;stroke-opacity:1.0000000"
     d="M 13.499083,12.905148 C 13.997717,13.925663 15.049968,13.048949 15.688939,13.544881 C 16.354056,14.048299 17.583531,13.561834 17.583531,14.233824 C 17.583531,14.307641 17.643833,14.534408 17.275968,14.689018 C 16.958062,14.827253 15.823307,14.352077 14.876972,14.381455 C 14.365085,14.397769 14.082148,15.024139 13.609808,14.664414 C 13.240777,14.392736 12.660342,13.711796 11.875149,13.631000 C 11.179419,13.558272 10.361934,12.007062 10.361934,12.007062 C 10.361934,12.007062 10.115332,11.131178 10.706405,11.674893 C 12.296016,13.134438 13.151371,12.143154 13.499083,12.905148 z "
     id="path578"
     sodipodi:nodetypes="csssssssss" />
  <path
     style="fill:#058c00;fill-opacity:1.0000000;fill-rule:evenodd;stroke:none;stroke-width:1.0000000pt;stroke-linecap:butt;stroke-linejoin:miter;stroke-opacity:1.0000000"
     d="M 12.047383,8.4762288 C 11.596044,8.9471226 11.199226,9.1174230 11.112389,9.4358295 C 11.063900,9.6136260 11.169800,10.366723 11.948963,9.8910235 C 11.948963,9.8910235 12.613302,9.3251075 13.142310,9.4358295 C 13.166368,9.4409854 13.732832,8.9683309 13.732832,8.9683309 C 12.432863,8.8371059 12.964535,8.6821307 12.637906,8.4639271 C 12.293226,8.2254472 12.176785,8.3447455 12.047383,8.4762288 z "
     id="path579"
     sodipodi:nodetypes="cssssss" />
  <path
     style="fill:#ff0000;fill-opacity:1.0000000;fill-rule:evenodd;stroke:none;stroke-width:1.0000000pt;stroke-linecap:butt;stroke-linejoin:miter;stroke-opacity:1.0000000"
     d="M 21.739219,8.8692336 C 21.739219,8.8240579 5.8377908,16.684423 5.8377908,16.684423 L 6.6961050,18.039659 L 22.507185,9.9985962 L 21.739219,8.8692336 z "
     id="path580" />
  <path
     style="fill:#ff0000;fill-opacity:1.0000000;fill-rule:evenodd;stroke:none;stroke-width:1.0000000pt;stroke-linecap:butt;stroke-linejoin:miter;stroke-opacity:1.0000000"
     d="M 12.399672,5.2278066 C 12.431830,5.1960853 18.003564,22.036413 18.003564,22.036413 L 16.435996,22.377156 L 11.056357,5.4742453 L 12.399672,5.2278066 z "
     id="path581" />
</svg>
